<<<<<<< HEAD
<svg xmlns="http://www.w3.org/2000/svg" width="7" height="9" viewBox="0 0 7 9">
  <path id="Polygon_6" data-name="Polygon 6" d="M4.5,0,9,7H0Z" transform="translate(7) rotate(90)" fill="#ffad3e"/>
</svg>
=======
<svg xmlns="http://www.w3.org/2000/svg" width="7" height="9" viewBox="0 0 7 9">
  <path id="Polygon_6" data-name="Polygon 6" d="M4.5,0,9,7H0Z" transform="translate(7) rotate(90)" fill="#ffad3e"/>
</svg>
>>>>>>> c01029ffff8ac05dab0c2b417ced39d7698cd4ce
