<<<<<<< HEAD
<svg xmlns="http://www.w3.org/2000/svg" xmlns:xlink="http://www.w3.org/1999/xlink" width="1103.39" height="810.622" viewBox="0 0 1103.39 810.622">
  <defs>
    <filter id="Path_1837" x="199.079" y="304.469" width="705.233" height="506.153" filterUnits="userSpaceOnUse">
      <feOffset dy="10" input="SourceAlpha"/>
      <feGaussianBlur stdDeviation="18" result="blur"/>
      <feFlood flood-opacity="0.078"/>
      <feComposite operator="in" in2="blur"/>
      <feComposite in="SourceGraphic"/>
    </filter>
    <filter id="Path_1838" x="0" y="0" width="1103.39" height="705.238" filterUnits="userSpaceOnUse">
      <feOffset dy="10" input="SourceAlpha"/>
      <feGaussianBlur stdDeviation="18" result="blur-2"/>
      <feFlood flood-opacity="0.078"/>
      <feComposite operator="in" in2="blur-2"/>
      <feComposite in="SourceGraphic"/>
    </filter>
  </defs>
  <g id="Group_783" data-name="Group 783" transform="translate(20.913 -228.61)">
    <g transform="matrix(1, 0, 0, 1, -20.91, 228.61)" filter="url(#Path_1837)">
      <path id="Path_1837-2" data-name="Path 1837" d="M310.5,23.759,210.957,123.3,11.88,322.375l99.539,99.537L310.5,222.833,509.574,421.912l99.539-99.537L410.035,123.3Z" transform="translate(241.2 324.71)" fill="#fff"/>
    </g>
    <g transform="matrix(1, 0, 0, 1, -20.91, 228.61)" filter="url(#Path_1838)">
      <path id="Path_1838-2" data-name="Path 1838" d="M597.233,99.537,497.7,0,398.157,99.537,0,497.7l99.539,99.542L497.7,199.079,895.852,597.238,995.39,497.7Z" transform="translate(54 44)" fill="#fff"/>
    </g>
  </g>
</svg>
=======
<svg xmlns="http://www.w3.org/2000/svg" xmlns:xlink="http://www.w3.org/1999/xlink" width="1103.39" height="810.622" viewBox="0 0 1103.39 810.622">
  <defs>
    <filter id="Path_1837" x="199.079" y="304.469" width="705.233" height="506.153" filterUnits="userSpaceOnUse">
      <feOffset dy="10" input="SourceAlpha"/>
      <feGaussianBlur stdDeviation="18" result="blur"/>
      <feFlood flood-opacity="0.078"/>
      <feComposite operator="in" in2="blur"/>
      <feComposite in="SourceGraphic"/>
    </filter>
    <filter id="Path_1838" x="0" y="0" width="1103.39" height="705.238" filterUnits="userSpaceOnUse">
      <feOffset dy="10" input="SourceAlpha"/>
      <feGaussianBlur stdDeviation="18" result="blur-2"/>
      <feFlood flood-opacity="0.078"/>
      <feComposite operator="in" in2="blur-2"/>
      <feComposite in="SourceGraphic"/>
    </filter>
  </defs>
  <g id="Group_783" data-name="Group 783" transform="translate(20.913 -228.61)">
    <g transform="matrix(1, 0, 0, 1, -20.91, 228.61)" filter="url(#Path_1837)">
      <path id="Path_1837-2" data-name="Path 1837" d="M310.5,23.759,210.957,123.3,11.88,322.375l99.539,99.537L310.5,222.833,509.574,421.912l99.539-99.537L410.035,123.3Z" transform="translate(241.2 324.71)" fill="#fff"/>
    </g>
    <g transform="matrix(1, 0, 0, 1, -20.91, 228.61)" filter="url(#Path_1838)">
      <path id="Path_1838-2" data-name="Path 1838" d="M597.233,99.537,497.7,0,398.157,99.537,0,497.7l99.539,99.542L497.7,199.079,895.852,597.238,995.39,497.7Z" transform="translate(54 44)" fill="#fff"/>
    </g>
  </g>
</svg>
>>>>>>> c01029ffff8ac05dab0c2b417ced39d7698cd4ce
